// Jest Snapshot v1, https://goo.gl/fbAQLP

exports[`EnergyMeterReadings renders a bar chart when supplied with information 1`] = `
Array [
  <h2
    className="sc-htpNat jFUdqV"
  >
    Meter Readings
  </h2>,
  <table
    className="sc-bdVaJa gdFStO"
  >
    <tbody>
      <tr>
        <th>
          Date
        </th>
        <th>
          Reading
        </th>
        <th>
          Unit
        </th>
      </tr>
      <tr>
        <td>
          Mar 31st 2017
        </td>
        <td>
          17600
        </td>
        <td>
          kWh
        </td>
      </tr>
      <tr>
        <td>
          Apr 30th 2017
        </td>
        <td>
          17859
        </td>
        <td>
          kWh
        </td>
      </tr>
      <tr>
        <td>
          May 31st 2017
        </td>
        <td>
          18102
        </td>
        <td>
          kWh
        </td>
      </tr>
      <tr>
        <td>
          Jun 30th 2017
        </td>
        <td>
          18290
        </td>
        <td>
          kWh
        </td>
      </tr>
      <tr>
        <td>
          Jul 31st 2017
        </td>
        <td>
          18453
        </td>
        <td>
          kWh
        </td>
      </tr>
      <tr>
        <td>
          Aug 31st 2017
        </td>
        <td>
          18620
        </td>
        <td>
          kWh
        </td>
      </tr>
      <tr>
        <td>
          Sep 30th 2017
        </td>
        <td>
          18782
        </td>
        <td>
          kWh
        </td>
      </tr>
      <tr>
        <td>
          Oct 31st 2017
        </td>
        <td>
          18965
        </td>
        <td>
          kWh
        </td>
      </tr>
      <tr>
        <td>
          Nov 30th 2017
        </td>
        <td>
          19230
        </td>
        <td>
          kWh
        </td>
      </tr>
      <tr>
        <td>
          Dec 31st 2017
        </td>
        <td>
          19517
        </td>
        <td>
          kWh
        </td>
      </tr>
      <tr>
        <td>
          Jan 31st 2018
        </td>
        <td>
          19827
        </td>
        <td>
          kWh
        </td>
      </tr>
      <tr>
        <td>
          Feb 28th 2018
        </td>
        <td>
          20113
        </td>
        <td>
          kWh
        </td>
      </tr>
      <tr>
        <td>
          Mar 31st 2018
        </td>
        <td>
          20376
        </td>
        <td>
          kWh
        </td>
      </tr>
      <tr>
        <td>
          Apr 30th 2018
        </td>
        <td>
          20610
        </td>
        <td>
          kWh
        </td>
      </tr>
    </tbody>
  </table>,
]
`;

exports[`EnergyMeterReadings renders a loading div if the array is empty 1`] = `
<div>
  Loading...
</div>
`;
